{"properties": [
  {
    "name": "sisdef",
    "type": "java.lang.String",
    "description": "A description for 'sisdef'"
  },
  {
    "name": "udpserver",
    "type": "java.lang.String",
    "description": "A description for 'udpserver'"
  }
]}