${AnsiColor.BLUE}
   _____  _____   _____  _____   ______  ______
  / ____||_   _| / ____||  __ \ |  ____||  ____|
 | (___    | |  | (___  | |  | || |__   | |__
  \___ \   | |   \___ \ | |  | ||  __|  |  __|
  ____) | _| |_  ____) || |__| || |____ | |
 |_____/ |_____||_____/ |_____/ |______||_|
${AnsiColor.GREEN}
  ______  __  __  __  __              _____  _    _         _______
 |  ____||  \/  ||  \/  |    /\      / ____|| |  | |    /\ |__   __|
 | |__   | \  / || \  / |   /  \    | |     | |__| |   /  \   | |
 |  __|  | |\/| || |\/| |  / /\ \   | |     |  __  |  / /\ \  | |
 | |____ | |  | || |  | | / ____ \  | |____ | |  | | / ____ \ | |
 |______||_|  |_||_|  |_|/_/    \_\  \_____||_|  |_|/_/    \_\|_|


${AnsiColor.RED}

Version App: ${application.formatted-version}
Version Spring-Boot: ${spring-boot.formatted-version}

${AnsiColor.BLACK}
